#TAG,NAME IN REPO (or git url),PURPOSE (should be a verb phrase to sound right while installing)
,fuse,""
,libfuse3-dev,""
,bzip2,""
,libbz2-dev,""
,cmake,""
,clang,""
,git,""
libattr1-dev,""
,zlib1g-dev,""
