#TAG,NAME IN REPO (or git url),PURPOSE (should be a verb phrase to sound right while installing)
,exiftool,"Utility for reading; writing and editing meta information in a wide variety of files."
G,https://bitbucket.org/delbiolabs/organize_photo_by_date,""
