#TAG,NAME IN REPO (or git url),PURPOSE (should be a verb phrase to sound right while installing)
,gimp,"GNU Image Manipulation Program"
,inkscape,"vector-based drawing program. use inkview to view svg files"
