#TAG,NAME IN REPO (or git url),PURPOSE (should be a verb phrase to sound right while installing)
,zathura,"document viewer with a minimalistic interface"
,qpdf,"tools for transforming and inspecting PDF files"
