#TAG,NAME IN REPO (or git url),PURPOSE (should be a verb phrase to sound right while installing)
,build-essential,"basic tools to compile debian packages. contain C99"
,fontconfig,"generic font configuration library"
,libx11-dev,"X11 client-side library (development headers)"
,libxft2,"FreeType-based font drawing library for X"
,libxft-dev,"FreeType-based font drawing library for X (development files)"
,xcompmgr,"X composition manager"
,libharfbuzz-bin,"OpenType text shaping engine (utility)"
,libharfbuzz-dev,"Development files for OpenType text shaping engine"
g,https://github.com/LukeSmithxyz/st,"The suckless terminal (st)"
